Single-cycle/testbench.vcd
$date
	Sun Mar 26 19:14:12 2023
$end
$version
	Icarus Verilog
$end
$timescale
	1ps
$end
$scope module testbench $end
$var wire 32 ! WriteData [31:0] $end
$var wire 1 " MemWrite $end
$var wire 32 # DataAdr [31:0] $end
$var reg 1 $ clk $end
$var reg 1 % reset $end
$scope module dut $end
$var wire 1 $ clk $end
$var wire 1 % reset $end
$var wire 32 & WriteData [31:0] $end
$var wire 32 ' ReadData [31:0] $end
$var wire 32 ( PC [31:0] $end
$var wire 1 " MemWrite $end
$var wire 32 ) Instr [31:0] $end
$var wire 32 * DataAdr [31:0] $end
$scope module arm $end
$var wire 1 $ clk $end
$var wire 1 % reset $end
$var wire 32 + WriteData [31:0] $end
$var wire 1 , RegWrite $end
$var wire 2 - RegSrc [1:0] $end
$var wire 2 . RegControl [1:0] $end
$var wire 32 / ReadData [31:0] $end
$var wire 1 0 PCSrc $end
$var wire 32 1 PC [31:0] $end
$var wire 1 2 NoWrite $end
$var wire 1 3 MemtoReg $end
$var wire 1 " MemWrite $end
$var wire 32 4 Instr [31:0] $end
$var wire 2 5 ImmSrc [1:0] $end
$var wire 1 6 ALUSrc $end
$var wire 32 7 ALUResult [31:0] $end
$var wire 4 8 ALUFlags [3:0] $end
$var wire 4 9 ALUControl [3:0] $end
$scope module c $end
$var wire 1 $ clk $end
$var wire 1 % reset $end
$var wire 1 , RegWrite $end
$var wire 1 : RegW $end
$var wire 2 ; RegSrc [1:0] $end
$var wire 2 < RegControl [1:0] $end
$var wire 1 0 PCSrc $end
$var wire 1 = PCS $end
$var wire 1 2 NoWrite $end
$var wire 1 3 MemtoReg $end
$var wire 1 " MemWrite $end
$var wire 1 > MemW $end
$var wire 32 ? Instr [31:0] $end
$var wire 2 @ ImmSrc [1:0] $end
$var wire 2 A FlagW [1:0] $end
$var wire 1 6 ALUSrc $end
$var wire 4 B ALUFlags [3:0] $end
$var wire 4 C ALUControl [3:0] $end
$scope module cl $end
$var wire 4 D Cond [3:0] $end
$var wire 2 E FlagWrite [1:0] $end
$var wire 1 " MemWrite $end
$var wire 1 0 PCSrc $end
$var wire 1 , RegWrite $end
$var wire 1 $ clk $end
$var wire 1 % reset $end
$var wire 1 : RegW $end
$var wire 1 = PCS $end
$var wire 1 2 NoWrite $end
$var wire 1 > MemW $end
$var wire 4 F Flags [3:0] $end
$var wire 2 G FlagW [1:0] $end
$var wire 1 H CondEx $end
$var wire 4 I ALUFlags [3:0] $end
$scope module cc $end
$var wire 4 J Cond [3:0] $end
$var wire 4 K Flags [3:0] $end
$var wire 1 L ge $end
$var wire 1 M zero $end
$var wire 1 N overflow $end
$var wire 1 O neg $end
$var wire 1 P carry $end
$var reg 1 H CondEx $end
$upscope $end
$scope module flagreg0 $end
$var wire 1 $ clk $end
$var wire 2 Q d [1:0] $end
$var wire 1 R en $end
$var wire 1 % reset $end
$var parameter 32 S WIDTH $end
$var reg 2 T q [1:0] $end
$upscope $end
$scope module flagreg1 $end
$var wire 1 $ clk $end
$var wire 2 U d [1:0] $end
$var wire 1 V en $end
$var wire 1 % reset $end
$var parameter 32 W WIDTH $end
$var reg 2 X q [1:0] $end
$upscope $end
$upscope $end
$scope module dec $end
$var wire 6 Y Funct [5:0] $end
$var wire 2 Z Op [1:0] $end
$var wire 1 = PCS $end
$var wire 4 [ Rd [3:0] $end
$var wire 12 \ Src2 [11:0] $end
$var wire 1 : RegW $end
$var wire 2 ] RegSrc [1:0] $end
$var wire 1 3 MemtoReg $end
$var wire 1 > MemW $end
$var wire 2 ^ ImmSrc [1:0] $end
$var wire 1 _ Branch $end
$var wire 1 6 ALUSrc $end
$var wire 1 ` ALUOp $end
$var reg 4 a ALUControl [3:0] $end
$var reg 2 b FlagW [1:0] $end
$var reg 1 2 NoWrite $end
$var reg 2 c RegControl [1:0] $end
$var reg 10 d controls [9:0] $end
$upscope $end
$upscope $end
$scope module dp $end
$var wire 4 e ALUControl [3:0] $end
$var wire 1 6 ALUSrc $end
$var wire 2 f ImmSrc [1:0] $end
$var wire 1 3 MemtoReg $end
$var wire 1 0 PCSrc $end
$var wire 2 g RegControl [1:0] $end
$var wire 2 h RegSrc [1:0] $end
$var wire 1 , RegWrite $end
$var wire 1 $ clk $end
$var wire 1 % reset $end
$var wire 32 i WriteData [31:0] $end
$var wire 32 j SrcB [31:0] $end
$var wire 32 k SrcA [31:0] $end
$var wire 32 l Result [31:0] $end
$var wire 32 m ReadData [31:0] $end
$var wire 4 n RA2 [3:0] $end
$var wire 4 o RA1 [3:0] $end
$var wire 32 p PCPlus8 [31:0] $end
$var wire 32 q PCPlus4 [31:0] $end
$var wire 32 r PCNext [31:0] $end
$var wire 32 s PC [31:0] $end
$var wire 32 t Instr [31:0] $end
$var wire 32 u ExtImm [31:0] $end
$var wire 32 v ALUResult [31:0] $end
$var wire 4 w ALUFlags [3:0] $end
$scope module alu $end
$var wire 4 x ALUControl [3:0] $end
$var wire 32 y ANDresult [31:0] $end
$var wire 32 z EORresult [31:0] $end
$var wire 32 { ORresult [31:0] $end
$var wire 2 | RegControl [1:0] $end
$var wire 32 } b [31:0] $end
$var wire 32 ~ a [31:0] $end
$var wire 32 !" SUBresult [31:0] $end
$var wire 1 "" SUBcout $end
$var wire 32 #" RSBresult [31:0] $end
$var wire 1 $" RSBcout $end
$var wire 4 %" ALUFlags [3:0] $end
$var wire 32 &" ADDresult [31:0] $end
$var wire 1 '" ADDcout $end
$var parameter 32 (" n $end
$var reg 1 )" cout $end
$var reg 32 *" result [31:0] $end
$scope module add_instr $end
$var wire 1 +" cin $end
$var wire 32 ," s [31:0] $end
$var wire 1 '" cout $end
$var wire 32 -" b [31:0] $end
$var wire 32 ." a [31:0] $end
$var parameter 32 /" n $end
$upscope $end
$scope module rsb_instr $end
$var wire 32 0" b [31:0] $end
$var wire 1 1" cin $end
$var wire 32 2" s [31:0] $end
$var wire 1 $" cout $end
$var wire 32 3" a [31:0] $end
$var parameter 32 4" n $end
$upscope $end
$scope module sub_instr $end
$var wire 32 5" b [31:0] $end
$var wire 1 6" cin $end
$var wire 32 7" s [31:0] $end
$var wire 1 "" cout $end
$var wire 32 8" a [31:0] $end
$var parameter 32 9" n $end
$upscope $end
$upscope $end
$scope module ext $end
$var wire 2 :" ImmSrc [1:0] $end
$var wire 24 ;" Instr [23:0] $end
$var reg 32 <" ExtImm [31:0] $end
$upscope $end
$scope module pcadd1 $end
$var wire 32 =" b [31:0] $end
$var wire 32 >" y [31:0] $end
$var wire 32 ?" a [31:0] $end
$var parameter 32 @" WIDTH $end
$upscope $end
$scope module pcadd2 $end
$var wire 32 A" a [31:0] $end
$var wire 32 B" b [31:0] $end
$var wire 32 C" y [31:0] $end
$var parameter 32 D" WIDTH $end
$upscope $end
$scope module pcmux $end
$var wire 32 E" d0 [31:0] $end
$var wire 1 0 s $end
$var wire 32 F" y [31:0] $end
$var wire 32 G" d1 [31:0] $end
$var parameter 32 H" WIDTH $end
$upscope $end
$scope module pcreg $end
$var wire 1 $ clk $end
$var wire 32 I" d [31:0] $end
$var wire 1 % reset $end
$var parameter 32 J" WIDTH $end
$var reg 32 K" q [31:0] $end
$upscope $end
$scope module ra1mux $end
$var wire 4 L" d0 [3:0] $end
$var wire 4 M" d1 [3:0] $end
$var wire 1 N" s $end
$var wire 4 O" y [3:0] $end
$var parameter 32 P" WIDTH $end
$upscope $end
$scope module ra2mux $end
$var wire 4 Q" d0 [3:0] $end
$var wire 4 R" d1 [3:0] $end
$var wire 1 S" s $end
$var wire 4 T" y [3:0] $end
$var parameter 32 U" WIDTH $end
$upscope $end
$scope module resmux $end
$var wire 32 V" d0 [31:0] $end
$var wire 1 3 s $end
$var wire 32 W" y [31:0] $end
$var wire 32 X" d1 [31:0] $end
$var parameter 32 Y" WIDTH $end
$upscope $end
$scope module rf $end
$var wire 1 $ clk $end
$var wire 32 Z" r15 [31:0] $end
$var wire 4 [" ra1 [3:0] $end
$var wire 4 \" ra2 [3:0] $end
$var wire 4 ]" wa3 [3:0] $end
$var wire 32 ^" wd3 [31:0] $end
$var wire 1 , we3 $end
$var wire 32 _" rd2 [31:0] $end
$var wire 32 `" rd1 [31:0] $end
$upscope $end
$scope module srcbmux $end
$var wire 32 a" d0 [31:0] $end
$var wire 32 b" d1 [31:0] $end
$var wire 1 6 s $end
$var wire 32 c" y [31:0] $end
$var parameter 32 d" WIDTH $end
$upscope $end
$upscope $end
$upscope $end
$scope module dmem $end
$var wire 32 e" a [31:0] $end
$var wire 1 $ clk $end
$var wire 32 f" rd [31:0] $end
$var wire 32 g" wd [31:0] $end
$var wire 1 " we $end
$upscope $end
$scope module imem $end
$var wire 32 h" a [31:0] $end
$var wire 32 i" rd [31:0] $end
$upscope $end
$upscope $end
$upscope $end
$scope module testbench $end
$upscope $end
$enddefinitions $end
$comment Show the parameter values. $end
$dumpall
b100000 d"
b100000 Y"
b100 U"
b100 P"
b100000 J"
b100000 H"
b100000 D"
b100000 @"
b100000 9"
b100000 4"
b100000 /"
b100000 ("
b10 W
b10 S
$end
#22
$dumpvars
b11100000010011110000000000001111 i"
b0 h"
b1000 g"
bx f"
b0 e"
b1000 c"
b1111 b"
b1000 a"
b1000 `"
b1000 _"
b0 ^"
b0 ]"
b1111 \"
b1111 ["
b1000 Z"
bx X"
b0 W"
b0 V"
b1111 T"
0S"
b0 R"
b1111 Q"
b1111 O"
0N"
b1111 M"
b1111 L"
b0 K"
b100 I"
b0 G"
b100 F"
b100 E"
b1000 C"
b100 B"
b100 A"
b0 ?"
b100 >"
b100 ="
b1111 <"
b10011110000000000001111 ;"
b0 :"
b1000 8"
b0 7"
16"
b11111111111111111111111111110111 5"
b1000 3"
b0 2"
11"
b11111111111111111111111111110111 0"
b1000 ."
b1000 -"
b10000 ,"
0+"
b0 *"
1)"
0'"
b10000 &"
b110 %"
1$"
b0 #"
1""
b0 !"
b1000 ~
b1000 }
bx |
b1000 {
b0 z
b1000 y
b1 x
b110 w
b0 v
b1111 u
b11100000010011110000000000001111 t
b0 s
b100 r
b100 q
b1000 p
b1111 o
b1111 n
bx m
b0 l
b1000 k
b1000 j
b1000 i
b0 h
bx g
b0 f
b1 e
b1001 d
bx c
b0 b
b1 a
1`
0_
b0 ^
b0 ]
b1111 \
b0 [
b0 Z
b100 Y
b0 X
0V
b1 U
b0 T
0R
b10 Q
0P
0O
0N
0M
1L
b0 K
b1110 J
b110 I
1H
b0 G
b0 F
b0 E
b1110 D
b1 C
b110 B
b0 A
b0 @
b11100000010011110000000000001111 ?
0>
0=
bx <
b0 ;
1:
b1 9
b110 8
b0 7
06
b0 5
b11100000010011110000000000001111 4
03
02
b0 1
00
bx /
bx .
b0 -
1,
b1000 +
b0 *
b11100000010011110000000000001111 )
b0 (
bx '
b1000 &
0%
1$
b0 #
0"
b1000 !
$end
#25
0$
#30
b0 Q
b101 #"
b101 2"
0""
b101 z
0)"
16
b0 U
b101 l
b101 G"
b101 W"
b101 ^"
b101 u
b101 <"
b101 b"
b101 n
b101 T"
b101 \"
b0 o
b0 O"
b0 ["
b0 9
b0 C
b0 a
b0 e
b0 x
b101001 d
b0 8
b0 B
b0 I
b0 w
b0 %"
b101 #
b101 *
b101 7
b101 v
b101 *"
b101 V"
b101 e"
b11111111111111111111111111111010 5"
b100000000010000000000101 ;"
b10 ]"
b10 R"
b101 Q"
b0 L"
b101 \
b10 [
b101000 Y
b11111111111111111111111111111011 !"
b11111111111111111111111111111011 7"
b101 &"
b101 ,"
b101 {
b0 y
b11111111111111111111111111111111 0"
b101 j
b101 }
b101 -"
b101 3"
b101 c"
b11100010100000000010000000000101 )
b11100010100000000010000000000101 4
b11100010100000000010000000000101 ?
b11100010100000000010000000000101 t
b11100010100000000010000000000101 i"
b0 k
b0 ~
b0 ."
b0 8"
b0 `"
bx !
bx &
bx +
bx i
bx _"
bx a"
bx g"
b1000 r
b1000 F"
b1000 I"
b1100 p
b1100 C"
b1100 Z"
b1000 q
b1000 >"
b1000 A"
b1000 E"
b100 (
b100 1
b100 s
b100 ?"
b100 K"
b100 h"
1$
#35
0$
#40
b1100 l
b1100 G"
b1100 W"
b1100 ^"
b1100 #
b1100 *
b1100 7
b1100 v
b1100 *"
b1100 V"
b1100 e"
b11111111111111111111111111110100 !"
b11111111111111111111111111110100 7"
b1100 #"
b1100 2"
b1100 &"
b1100 ,"
b1100 z
b1100 {
b11111111111111111111111111110011 5"
b1100 j
b1100 }
b1100 -"
b1100 3"
b1100 c"
b1100 u
b1100 <"
b1100 b"
b1100 n
b1100 T"
b1100 \"
b100000000011000000001100 ;"
b11 ]"
b11 R"
b1100 Q"
b1100 \
b11 [
b11100010100000000011000000001100 )
b11100010100000000011000000001100 4
b11100010100000000011000000001100 ?
b11100010100000000011000000001100 t
b11100010100000000011000000001100 i"
b1100 r
b1100 F"
b1100 I"
b10000 p
b10000 C"
b10000 Z"
b1100 q
b1100 >"
b1100 A"
b1100 E"
b1000 (
b1000 1
b1000 s
b1000 ?"
b1000 K"
b1000 h"
1$
#45
0$
#50
b10 Q
1)"
0$"
b0 U
b11111111111111111111111111111101 #"
b11111111111111111111111111111101 2"
b11111111111111111111111111110110 5"
b11 !"
b11 7"
1""
b10101 &"
b10101 ,"
b101 z
b1101 {
b1000 y
b11111111111111111111111111110011 0"
b10 8
b10 B
b10 I
b10 w
b10 %"
b11 l
b11 G"
b11 W"
b11 ^"
b1001 j
b1001 }
b1001 -"
b1001 3"
b1001 c"
b1100 k
b1100 ~
b1100 ."
b1100 8"
b1100 `"
b11 #
b11 *
b11 7
b11 v
b11 *"
b11 V"
b11 e"
b1001 u
b1001 <"
b1001 b"
b1001 n
b1001 T"
b1001 \"
b11 o
b11 O"
b11 ["
b1 9
b1 C
b1 a
b1 e
b1 x
b10000110111000000001001 ;"
b111 ]"
b111 R"
b1001 Q"
b11 L"
b1001 \
b111 [
b100100 Y
b11100010010000110111000000001001 )
b11100010010000110111000000001001 4
b11100010010000110111000000001001 ?
b11100010010000110111000000001001 t
b11100010010000110111000000001001 i"
b10000 r
b10000 F"
b10000 I"
b10100 p
b10100 C"
b10100 Z"
b10000 q
b10000 >"
b10000 A"
b10000 E"
b1100 (
b1100 1
b1100 s
b1100 ?"
b1100 K"
b1100 h"
1$
#55
0$
#60
1$"
b0 Q
b10 #"
b10 2"
b11111111111111111111111111111010 5"
b11111111111111111111111111111110 !"
b11111111111111111111111111111110 7"
0""
b1000 &"
b1000 ,"
b110 z
b111 {
b1 y
b11111111111111111111111111111100 0"
b0 8
b0 B
b0 I
b0 w
b0 %"
b111 l
b111 G"
b111 W"
b111 ^"
b101 j
b101 }
b101 -"
b101 3"
b101 c"
b101 !
b101 &
b101 +
b101 i
b101 _"
b101 a"
b101 g"
b11 k
b11 ~
b11 ."
b11 8"
b11 `"
x)"
b111 #
b111 *
b111 7
b111 v
b111 *"
b111 V"
b111 e"
06
b10 u
b10 <"
b10 b"
b10 n
b10 T"
b10 \"
b111 o
b111 O"
b111 ["
b11 9
b11 C
b11 a
b11 e
b11 x
b1001 d
b100001110100000000000010 ;"
b100 ]"
b100 R"
b10 Q"
b111 L"
b10 \
b100 [
b11000 Y
b11100001100001110100000000000010 )
b11100001100001110100000000000010 4
b11100001100001110100000000000010 ?
b11100001100001110100000000000010 t
b11100001100001110100000000000010 i"
b10100 r
b10100 F"
b10100 I"
b11000 p
b11000 C"
b11000 Z"
b10100 q
b10100 >"
b10100 A"
b10100 E"
b10000 (
b10000 1
b10000 s
b10000 ?"
b10000 K"
b10000 h"
1$
#65
0$
#70
b11111111111111111111111111111000 5"
b11111111111111111111111111111011 #"
b11111111111111111111111111111011 2"
0$"
b111 j
b111 }
b111 -"
b111 3"
b111 c"
b101 !"
b101 7"
1""
b10011 &"
b10011 ,"
b1011 z
b1111 {
b100 y
b11111111111111111111111111110011 0"
b100 l
b100 G"
b100 W"
b100 ^"
b111 !
b111 &
b111 +
b111 i
b111 _"
b111 a"
b111 g"
b1100 k
b1100 ~
b1100 ."
b1100 8"
b1100 `"
b100 #
b100 *
b100 7
b100 v
b100 *"
b100 V"
b100 e"
b100 u
b100 <"
b100 b"
b100 n
b100 T"
b100 \"
b11 o
b11 O"
b11 ["
b10 9
b10 C
b10 a
b10 e
b10 x
b110101000000000100 ;"
b101 ]"
b101 R"
b100 Q"
b11 L"
b100 \
b101 [
b0 Y
b11100000000000110101000000000100 )
b11100000000000110101000000000100 4
b11100000000000110101000000000100 ?
b11100000000000110101000000000100 t
b11100000000000110101000000000100 i"
b11000 r
b11000 F"
b11000 I"
b11100 p
b11100 C"
b11100 Z"
b11000 q
b11000 >"
b11000 A"
b11000 E"
b10100 (
b10100 1
b10100 s
b10100 ?"
b10100 K"
b10100 h"
1$
#75
0$
#80
b11 #"
b11 2"
1$"
b11111111111111111111111111111101 !"
b11111111111111111111111111111101 7"
0""
b1011 &"
b1011 ,"
b11 z
b111 {
b11111111111111111111111111111011 0"
b1011 l
b1011 G"
b1011 W"
b1011 ^"
b100 k
b100 ~
b100 ."
b100 8"
b100 `"
0)"
b1011 #
b1011 *
b1011 7
b1011 v
b1011 *"
b1011 V"
b1011 e"
b101 o
b101 O"
b101 ["
b0 9
b0 C
b0 a
b0 e
b0 x
b100001010101000000000100 ;"
b101 L"
b1000 Y
b11100000100001010101000000000100 )
b11100000100001010101000000000100 4
b11100000100001010101000000000100 ?
b11100000100001010101000000000100 t
b11100000100001010101000000000100 i"
b11100 r
b11100 F"
b11100 I"
b100000 p
b100000 C"
b100000 Z"
b11100 q
b11100 >"
b11100 A"
b11100 E"
b11000 (
b11000 1
b11000 s
b11000 ?"
b11000 K"
b11000 h"
1$
#85
0$
#90
b11111111111111111111111111111100 5"
b10 Q
b11 j
b11 }
b11 -"
b11 3"
b11 c"
1V
1R
b10 8
b10 B
b10 I
b10 w
b10 %"
b11 !
b11 &
b11 +
b11 i
b11 _"
b11 a"
b11 g"
b11 E
1)"
b1000 l
b1000 G"
b1000 W"
b1000 ^"
b111 u
b111 <"
b111 b"
b111 n
b111 T"
b111 \"
b11 A
b11 G
b11 b
b1 9
b1 C
b1 a
b1 e
b1 x
b1000 #
b1000 *
b1000 7
b1000 v
b1000 *"
b1000 V"
b1000 e"
b11111111111111111111111111111000 #"
b11111111111111111111111111111000 2"
0$"
b10101011000000000000111 ;"
b1000 ]"
b1000 R"
b111 Q"
b111 \
b1000 [
b101 Y
b1000 !"
b1000 7"
1""
b1110 &"
b1110 ,"
b1000 z
b1011 {
b11 y
b11111111111111111111111111110100 0"
b11100000010101011000000000000111 )
b11100000010101011000000000000111 4
b11100000010101011000000000000111 ?
b11100000010101011000000000000111 t
b11100000010101011000000000000111 i"
b100000 r
b100000 F"
b100000 I"
b1011 k
b1011 ~
b1011 ."
b1011 8"
b1011 `"
b100100 p
b100100 C"
b100100 Z"
b100000 q
b100000 >"
b100000 A"
b100000 E"
b11100 (
b11100 1
b11100 s
b11100 ?"
b11100 K"
b11100 h"
1$
#95
0$
#100
b0 Q
b101000 #"
b101000 2"
1$"
b11111111111111111111111110101111 5"
b11111111111111111111111111011000 !"
b11111111111111111111111111011000 7"
0""
b1111000 &"
b1111000 ,"
b1111000 z
b1111000 {
b0 y
b11111111111111111111111111010111 0"
b0 8
b0 B
b0 I
b0 w
b0 %"
b1111000 l
b1111000 G"
b1111000 W"
b1111000 ^"
1N"
b1010000 j
b1010000 }
b1010000 -"
b1010000 3"
b1010000 c"
1=
b0 .
b0 <
b0 c
b0 g
b0 |
0V
0R
0,
b111 !
b111 &
b111 +
b111 i
b111 _"
b111 a"
b111 g"
b101000 k
b101000 ~
b101000 ."
b101000 8"
b101000 `"
0)"
b1111000 #
b1111000 *
b1111000 7
b1111000 v
b1111000 *"
b1111000 V"
b1111000 e"
b1 -
b1 ;
b1 ]
b1 h
b10 5
b10 @
b10 ^
b10 f
b10 :"
16
0:
1_
0`
b0 E
b1010000 u
b1010000 <"
b1010000 b"
b100 n
b100 T"
b100 \"
b1111 o
b1111 O"
b1111 ["
b0 A
b0 G
b0 b
b0 9
b0 C
b0 a
b0 e
b0 x
b110100010 d
0H
b10100 ;"
b0 ]"
b0 R"
b100 Q"
b0 L"
b0 D
b0 J
b10100 \
b0 [
b100000 Y
b10 Z
1P
b1010000000000000000000010100 )
b1010000000000000000000010100 4
b1010000000000000000000010100 ?
b1010000000000000000000010100 t
b1010000000000000000000010100 i"
b100100 r
b100100 F"
b100100 I"
b10 F
b10 K
b10 T
b101000 p
b101000 C"
b101000 Z"
b100100 q
b100100 >"
b100100 A"
b100100 E"
b100000 (
b100000 1
b100000 s
b100000 ?"
b100000 K"
b100000 h"
1$
#105
0$
#110
b10 Q
b0 U
1V
1R
1)"
b10 8
b10 B
b10 I
b10 w
b10 %"
1""
b11 o
b11 O"
b11 ["
b11 E
0$"
b100 y
b11111111111111111111111111111000 5"
1,
0N"
0=
bx .
bx <
bx c
bx g
bx |
b11 A
b11 G
b11 b
b1 9
b1 C
b1 a
b1 e
b1 x
b111 j
b111 }
b111 -"
b111 3"
b111 c"
00
b0 -
b0 ;
b0 ]
b0 h
b0 5
b0 @
b0 ^
b0 f
b0 :"
06
1:
0_
1`
b101 l
b101 G"
b101 W"
b101 ^"
b100 u
b100 <"
b100 b"
1H
b1001 d
b101 #
b101 *
b101 7
b101 v
b101 *"
b101 V"
b101 e"
b11111111111111111111111111111011 #"
b11111111111111111111111111111011 2"
b10100111000000000000100 ;"
b1000 ]"
b1000 R"
b11 L"
b1110 D
b1110 J
b100 \
b1000 [
b101 Y
b0 Z
b101 !"
b101 7"
b10011 &"
b10011 ,"
b1011 z
b1111 {
b11111111111111111111111111110011 0"
b11100000010100111000000000000100 )
b11100000010100111000000000000100 4
b11100000010100111000000000000100 ?
b11100000010100111000000000000100 t
b11100000010100111000000000000100 i"
b1100 k
b1100 ~
b1100 ."
b1100 8"
b1100 `"
b101000 r
b101000 F"
b101000 I"
b101100 p
b101100 C"
b101100 Z"
b101000 q
b101000 >"
b101000 A"
b101000 E"
b100100 (
b100100 1
b100100 s
b100100 ?"
b100100 K"
b100100 h"
1$
#115
0$
#120
b0 U
0$"
b0 Q
b11111111111111111111111111010000 #"
b11111111111111111111111111010000 2"
b11111111111111111111111111111111 5"
0,
10
b110000 !"
b110000 7"
1""
b110000 &"
b110000 ,"
b110000 z
b110000 {
b0 y
b11111111111111111111111111001111 0"
0V
0R
b0 8
b0 B
b0 I
b0 w
b0 %"
b110000 l
b110000 G"
b110000 W"
b110000 ^"
1N"
b0 j
b0 }
b0 -"
b0 3"
b0 c"
1=
b0 .
b0 <
b0 c
b0 g
b0 |
b0 !
b0 &
b0 +
b0 i
b0 _"
b0 a"
b0 g"
b110000 k
b110000 ~
b110000 ."
b110000 8"
b110000 `"
b0 E
0)"
b110000 #
b110000 *
b110000 7
b110000 v
b110000 *"
b110000 V"
b110000 e"
b1 -
b1 ;
b1 ]
b1 h
b10 5
b10 @
b10 ^
b10 f
b10 :"
16
0:
1_
0`
b0 u
b0 <"
b0 b"
b0 n
b0 T"
b0 \"
b1111 o
b1111 O"
b1111 ["
b0 A
b0 G
b0 b
b0 9
b0 C
b0 a
b0 e
b0 x
b110100010 d
b0 ;"
b0 ]"
b0 R"
b0 Q"
b0 L"
b1010 D
b1010 J
b0 \
b0 [
b100000 Y
b10 Z
b10101010000000000000000000000000 )
b10101010000000000000000000000000 4
b10101010000000000000000000000000 ?
b10101010000000000000000000000000 t
b10101010000000000000000000000000 i"
b110000 r
b110000 F"
b110000 I"
b110000 p
b110000 C"
b110000 Z"
b101100 q
b101100 >"
b101100 A"
b101100 E"
b101000 (
b101000 1
b101000 s
b101000 ?"
b101000 K"
b101000 h"
1$
#125
0$
#130
b10 U
1$"
0""
b1 y
b0 Q
1V
1R
b1000 8
b1000 B
b1000 I
b1000 w
b1000 %"
b111 o
b111 O"
b111 ["
1,
00
b11 E
0)"
b11111111111111111111111111111010 5"
0N"
0=
bx .
bx <
bx c
bx g
bx |
b11 A
b11 G
b11 b
b1 9
b1 C
b1 a
b1 e
b1 x
b110100 r
b110100 F"
b110100 I"
b101 j
b101 }
b101 -"
b101 3"
b101 c"
b101 !
b101 &
b101 +
b101 i
b101 _"
b101 a"
b101 g"
b0 -
b0 ;
b0 ]
b0 h
b0 5
b0 @
b0 ^
b0 f
b0 :"
06
1:
0_
1`
b11111111111111111111111111111110 l
b11111111111111111111111111111110 G"
b11111111111111111111111111111110 W"
b11111111111111111111111111111110 ^"
b10 u
b10 <"
b10 b"
b10 n
b10 T"
b10 \"
b1001 d
b11111111111111111111111111111110 #
b11111111111111111111111111111110 *
b11111111111111111111111111111110 7
b11111111111111111111111111111110 v
b11111111111111111111111111111110 *"
b11111111111111111111111111111110 V"
b11111111111111111111111111111110 e"
b10 #"
b10 2"
b10101111000000000000010 ;"
b1000 ]"
b1000 R"
b10 Q"
b111 L"
b1110 D
b1110 J
b10 \
b1000 [
b101 Y
b0 Z
b11111111111111111111111111111110 !"
b11111111111111111111111111111110 7"
b1000 &"
b1000 ,"
b110 z
b111 {
b11111111111111111111111111111100 0"
b11100000010101111000000000000010 )
b11100000010101111000000000000010 4
b11100000010101111000000000000010 ?
b11100000010101111000000000000010 t
b11100000010101111000000000000010 i"
b11 k
b11 ~
b11 ."
b11 8"
b11 `"
b111000 p
b111000 C"
b111000 Z"
b110100 q
b110100 >"
b110100 A"
b110100 E"
b110000 (
b110000 1
b110000 s
b110000 ?"
b110000 K"
b110000 h"
1$
#135
0$
#140
b0 U
b11111111111111111111111111110110 #"
b11111111111111111111111111110110 2"
0$"
b11111111111111111111111111111110 5"
b1010 !"
b1010 7"
1""
b1100 &"
b1100 ,"
b1010 z
b1011 {
b11111111111111111111111111110100 0"
b0 8
b0 B
b0 I
b0 w
b0 %"
b1100 l
b1100 G"
b1100 W"
b1100 ^"
b1 j
b1 }
b1 -"
b1 3"
b1 c"
0V
0R
1,
bx !
bx &
bx +
bx i
bx _"
bx a"
bx g"
b1011 k
b1011 ~
b1011 ."
b1011 8"
b1011 `"
b1100 #
b1100 *
b1100 7
b1100 v
b1100 *"
b1100 V"
b1100 e"
16
b0 E
b1 u
b1 <"
b1 b"
b1 n
b1 T"
b1 \"
b101 o
b101 O"
b101 ["
b0 A
b0 G
b0 b
b0 9
b0 C
b0 a
b0 e
b0 x
b101001 d
0L
1H
b100001010111000000000001 ;"
b111 ]"
b111 R"
b1 Q"
b101 L"
b1011 D
b1011 J
b1 \
b111 [
b101000 Y
1O
0P
b10110010100001010111000000000001 )
b10110010100001010111000000000001 4
b10110010100001010111000000000001 ?
b10110010100001010111000000000001 t
b10110010100001010111000000000001 i"
b111000 r
b111000 F"
b111000 I"
b10 X
b1000 F
b1000 K
b0 T
b111100 p
b111100 C"
b111100 Z"
b111000 q
b111000 >"
b111000 A"
b111000 E"
b110100 (
b110100 1
b110100 s
b110100 ?"
b110100 K"
b110100 h"
1$
#145
0$
#150
b10 Q
b11111111111111111111111111111001 #"
b11111111111111111111111111111001 2"
b11111111111111111111111111111010 5"
b111 !"
b111 7"
b10001 &"
b10001 ,"
b1001 z
b1101 {
b100 y
b11111111111111111111111111110011 0"
b10 8
b10 B
b10 I
b10 w
b10 %"
b111 l
b111 G"
b111 W"
b111 ^"
b101 j
b101 }
b101 -"
b101 3"
b101 c"
b101 !
b101 &
b101 +
b101 i
b101 _"
b101 a"
b101 g"
b1100 k
b1100 ~
b1100 ."
b1100 8"
b1100 `"
1)"
b111 #
b111 *
b111 7
b111 v
b111 *"
b111 V"
b111 e"
06
b10 u
b10 <"
b10 b"
b10 n
b10 T"
b10 \"
b111 o
b111 O"
b111 ["
b1 9
b1 C
b1 a
b1 e
b1 x
b1001 d
b10001110111000000000010 ;"
b10 Q"
b111 L"
b1110 D
b1110 J
b10 \
b100 Y
b11100000010001110111000000000010 )
b11100000010001110111000000000010 4
b11100000010001110111000000000010 ?
b11100000010001110111000000000010 t
b11100000010001110111000000000010 i"
b111100 r
b111100 F"
b111100 I"
b1000000 p
b1000000 C"
b1000000 Z"
b111100 q
b111100 >"
b111100 A"
b111100 E"
b111000 (
b111000 1
b111000 s
b111000 ?"
b111000 K"
b111000 h"
1$
#155
0$
#160
0""
b0 Q
1$"
b11111111111111111111111110101011 5"
0,
b0 8
b0 B
b0 I
b0 w
b0 %"
1S"
b1010100 j
b1010100 }
b1010100 -"
b1010100 3"
b1010100 c"
1"
b0 .
b0 <
b0 c
b0 g
b0 |
b111 !
b111 &
b111 +
b111 i
b111 _"
b111 a"
b111 g"
0)"
b10 -
b10 ;
b10 ]
b10 h
b1 5
b1 @
b1 ^
b1 f
b1 :"
16
13
0:
1>
0`
bx l
bx G"
bx W"
bx ^"
b1010100 u
b1010100 <"
b1010100 b"
b111 n
b111 T"
b111 \"
b11 o
b11 O"
b11 ["
b0 9
b0 C
b0 a
b0 e
b0 x
b1001110100 d
b1100000 #
b1100000 *
b1100000 7
b1100000 v
b1100000 *"
b1100000 V"
b1100000 e"
b1001000 #"
b1001000 2"
b100000110111000001010100 ;"
b100 Q"
b11 L"
b1010100 \
b11000 Y
b1 Z
b11111111111111111111111110111000 !"
b11111111111111111111111110111000 7"
b1100000 &"
b1100000 ,"
b1011000 z
b1011100 {
b100 y
b11111111111111111111111111110011 0"
b11100101100000110111000001010100 )
b11100101100000110111000001010100 4
b11100101100000110111000001010100 ?
b11100101100000110111000001010100 t
b11100101100000110111000001010100 i"
b1000000 r
b1000000 F"
b1000000 I"
b1100 k
b1100 ~
b1100 ."
b1100 8"
b1100 `"
b1000100 p
b1000100 C"
b1000100 Z"
b1000000 q
b1000000 >"
b1000000 A"
b1000000 E"
b111100 (
b111100 1
b111100 s
b111100 ?"
b111100 K"
b111100 h"
1$
